#VRML V2.0 utf8

EXTERNPROTO NurbsCurve[
#
# Developed from NodeNurbsSurface.cpp of the vrml97 editor dune 
# Copyright (C) 1999 Stephen F. White
#
# PROTO interface and javascript port
# Copyright (C) 2003 J. "MUFTI" Scheurich
#
# urn collection 
# Copyright (C) 2003 Braden McDaniel, Paul Aslin
# 
# This program is free software; you can redistribute it and/or modify
# it under the terms of the GNU General Public License as published by
# the Free Software Foundation; either version 2 of the License, or
# (at your option) any later version.
#
 field MFFloat knot
 field SFInt32 order
 exposedField MFVec3f controlPoint
 exposedField MFFloat weight
 exposedField SFInt32 tessellation
 ]
[
 "urn:web3d:vrml97:node:NurbsCurve",
 "urn:inet:blaxxun.com:node:NurbsCurve",
 "urn:ParaGraph:NurbsCurve",
 "NurbsCurvePROTO.wrl"
 "http://129.69.35.12/dune/docs/vrml200x_nurbssurface/NurbsCurvePROTO.wrl",
]

