#VRML V2.0 utf8

PROTO KeySensor [
#
# Copyright (C) 2007 J. "MUFTI" Scheurich
# 
# This program is free software; you can redistribute it and/or modify
# it under the terms of the GNU Library General Public License as published by
# the Free Software Foundation; either version 2 of the License, or
# (at your option) any later version.
#
# This program is distributed in the hope that it will be useful,
# but WITHOUT ANY WARRANTY; without even the implied warranty of
# MERCHANTABILITY or FITNESS FOR A PARTICULAR PURPOSE.  See the
# GNU General Public License for more details.
#
# You should have received a copy of the GNU Library General Public License
# along with this program (see the file "COPYING" for details); if 
# not, write to the Free Software Foundation, Inc., 675 Mass Ave, 
# Cambridge, MA 02139, USA.
#
 exposedField SFBool enabled TRUE
 exposedField SFNode metadata NULL
 eventOut SFBool isActive
 eventOut SFInt32 actionKeyPress
 eventOut SFInt32 actionKeyRelease
 eventOut SFBool altKey
 eventOut SFBool controlKey
 eventOut SFBool isActive
 eventOut SFString keyPress 
 eventOut SFString keyRelease
 eventOut SFBool shiftKey
 ]
{
  Group 
    {
    }
}



